"Enrichment FDR","nGenes","Pathway Genes","Fold Enrichment","Pathway","URL","Genes"
3.99494844210772e-05,11,23,7.42907185540608,"Domain of unknown function DUF4378","https://www.ebi.ac.uk/interpro/entry/InterPro/IPR025486","AT1G63670 AT2G17550 AT2G20240 LNG2 AT3G58650 AT3G61380 AT4G00440 LNG1 AT5G26910 AT5G43880 AT5G51850"
0.0406436144916671,5,13,5.97442841518671,"Uncharacterised domain XH","https://www.ebi.ac.uk/interpro/entry/InterPro/IPR005379","AT1G15910 AT1G80970 AT3G12550 AT3G29375 AT4G00380"
0.018412254354403,6,16,5.82506770480704,"DUF3741-associated sequence motif","https://www.ebi.ac.uk/interpro/entry/InterPro/IPR032795","AT1G67040 AT2G17550 AT3G58650 AT5G26910 AT5G43880 AT5G51850"
0.022161519004381,6,17,5.4824166633478,"Cytochrome b561/ferric reductase transmembrane","https://www.ebi.ac.uk/interpro/entry/InterPro/IPR006593","AT1G14730 AT1G26100 AT2G04850 AT3G25290 AT4G12980 AT4G18260"
0.022161519004381,7,23,4.72759118071296,"Auxin response factor","https://www.ebi.ac.uk/interpro/entry/InterPro/IPR010525","ARF19 ARF17 ARF10 ARF11 ARF18 ARF16 ARF8"
0.019585479968408,8,29,4.28510727709943,"AUX/IAA protein","https://www.ebi.ac.uk/interpro/entry/InterPro/IPR003311","IAA10 IAA12 IAA19 IAA14 IAA1 IAA11 IAA28 ATAUX2-11"
0.000535135206898447,14,51,4.26410184927051,"Kinesin motor domain, conserved site","https://www.ebi.ac.uk/interpro/entry/InterPro/IPR019821","ARK3 AT1G21730 AT2G21300 AT2G21380 AT2G28620 AT3G12020 AT3G49650 KICP-02 MRH2 PAKRP1 AT4G38950 AT5G02370 AT5G06670 AT5G66310"
0.00242790673332359,12,46,4.05222101203968,"AUX/IAA domain","https://www.ebi.ac.uk/interpro/entry/InterPro/IPR033389","IAA10 IAA12 ARF19 ARF11 IAA19 ARF18 IAA14 IAA1 IAA11 IAA28 ARF8 ATAUX2-11"
0.000851860526316762,15,61,3.81971652774232,"Kinesin motor domain","https://www.ebi.ac.uk/interpro/entry/InterPro/IPR001752","ARK3 AT1G21730 AT2G21300 AT2G21380 AT2G28620 AT2G47500 AT3G12020 AT3G49650 KICP-02 MRH2 PAKRP1 AT4G38950 AT5G02370 AT5G06670 AT5G66310"
0.00119808621268568,17,79,3.34265488545889,"Kinesin motor domain superfamily","https://www.ebi.ac.uk/interpro/entry/InterPro/IPR036961","XIB ARK3 AT1G21730 VIIIA AT2G21300 AT2G21380 AT2G28620 AT2G47500 AT3G12020 AT3G49650 KICP-02 MRH2 PAKRP1 AT4G38950 AT5G02370 AT5G06670 AT5G66310"
0.0025921322172793,17,86,3.07057832501456,"PB1 domain","https://www.ebi.ac.uk/interpro/entry/InterPro/IPR000270","IAA10 IAA12 ARF19 AT1G20640 ARF10 ARF11 IAA19 AT3G59580 ARF18 IAA14 IAA1 IAA11 ARF16 IAA28 ARF8 ATAUX2-11 AT5G63130"
0.00330450730712867,25,162,2.3971472036243,"Helix-loop-helix DNA-binding domain superfamily","https://www.ebi.ac.uk/interpro/entry/InterPro/IPR036638","AT1G01260 AT1G09250 AT1G31050 AT1G51140 AT1G61660 EGL3 AT1G68920 AT2G18300 PIL5 AT2G22760 LRL1 FRU AT2G40200 PIF4 AT2G43140 AT3G07340 BHLH32 AT3G57800 AT4G30410 SPT BNQ2 BHLH071 AT5G48560 LRL3 BHLH093"
0.00827826705538492,24,163,2.2871431478997,"Myc-type, basic helix-loop-helix (bHLH) domain","https://www.ebi.ac.uk/interpro/entry/InterPro/IPR011598","AT1G01260 AT1G09250 AT1G31050 AT1G51140 AT1G61660 EGL3 AT1G68920 AT2G18300 PIL5 AT2G22760 LRL1 FRU AT2G40200 PIF4 AT2G43140 AT3G07340 BHLH32 AT3G57800 SPT BNQ2 BHLH071 AT5G48560 LRL3 BHLH093"
0.00199842058488278,31,213,2.26074615147441,"Leucine-rich repeat-containing N-terminal, plant-type","https://www.ebi.ac.uk/interpro/entry/InterPro/IPR013210","AT1G03440 AT1G12460 AT1G25320 AT1G34110 AT1G34420 AT1G35710 AT1G63430 SERK1 AT1G72300 AT2G23950 BRL3 TMKL1 AT3G47570 MRH1 AT4G18670 GSO1 AT4G22730 HAE AT4G30520 AT4G31250 AT4G34220 AT5G01890 AT5G01950 AT5G10020 FLS2 AT5G51350 PSKR2 AT5G58300 AT5G63710 AT5G63930 AT5G65240"
0.00681024634222972,44,376,1.8177516241951,"Serine-threonine/tyrosine-protein kinase, catalytic domain","https://www.ebi.ac.uk/interpro/entry/InterPro/IPR001245","AT1G11410 AT1G12460 WAK2 HERK2 AT1G34420 AT1G51620 AT1G51790 AT1G54820 AT1G56145 SD1-29 AT1G61400 AT1G61590 AT1G63430 SNC4 AT1G67890 AT1G69790 RHS10 CRK3 AT1G72300 AT2G02780 AT2G18890 AT2G41970 MPK12 RKF3 CES101 AT3G24240 TMKL1 AT3G26700 HERK1 AT3G57770 MRH1 CRK27 AT4G22730 CRK22 AT4G30520 AT4G32710 AT5G01850 AT5G01890 AT5G43020 AT5G49470 AT5G58150 AT5G59010 AT5G59700 AT5G61570"
0.000114071475339675,108,1027,1.63351460465864,"Protein kinase domain","https://www.ebi.ac.uk/interpro/entry/InterPro/IPR000719","AT1G09440 SUB AT1G11410 AT1G12460 WAK2 AT1G25320 AT1G28390 HERK2 AT1G34110 AT1G34420 AT1G35710 AT1G51170 AT1G51620 AT1G51790 AT1G54820 AT1G56145 AT1G56720 SD1-29 AT1G61400 AT1G61590 AT1G63430 SNC4 AT1G67470 AT1G67890 AT1G69790 RHS10 CRK3 AT1G71810 SERK1 AT1G72300 AT1G74330 CPK29 PPK1 AT1G78290 AT2G02780 AT2G16750 AT2G18890 AT2G23950 AT2G24230 PID AT2G41970 AT2G44830 MPK12 RKF3 PPCK2 AT3G10540 BRL3 WAG2 CES101 AT3G19300 CKL10 AT3G24240 TMKL1 AT3G26700 HERK1 AT3G47570 CRK AT3G57710 AT3G57770 AT3G59740 AT3G59750 CRK38 AT4G11890 AT4G14480 MRH1 GSO1 CRK27 CRK28 AT4G22730 CRK14 CRK22 MEK1 AT4G28350 HAE CKL4 AT4G30520 AT4G31250 AT4G32710 AT4G34220 AT4G35500 AT5G01850 AT5G01890 AT5G01950 AT5G06740 AT5G10020 CIPK5 CPK7 AT5G35370 AT5G37790 AT5G39020 CRK42 AT5G43020 AT5G46080 FLS2 AT5G49470 AT5G51350 PSKR2 AT5G55560 CIPK21 AT5G58150 AT5G58300 AT5G59010 AT5G59700 AT5G61560 AT5G61570 AT5G63710 AT5G63930 AT5G65240"
0.000535135206898447,108,1070,1.56786869063965,"Protein kinase-like domain superfamily","https://www.ebi.ac.uk/interpro/entry/InterPro/IPR011009","AT1G09440 SUB AT1G11410 AT1G12460 WAK2 AT1G25320 AT1G28390 HERK2 AT1G34110 AT1G34420 AT1G35710 AT1G51170 AT1G51620 AT1G51790 AT1G54820 AT1G56145 AT1G56720 SD1-29 AT1G61400 AT1G61590 AT1G63430 SNC4 AT1G67470 AT1G67890 AT1G69790 RHS10 CRK3 AT1G71810 SERK1 AT1G72300 AT1G74330 CPK29 PPK1 AT1G78290 AT2G02780 AT2G16750 AT2G18890 AT2G23950 AT2G24230 PID AT2G41970 AT2G44830 MPK12 RKF3 PPCK2 AT3G10540 BRL3 WAG2 CES101 AT3G19300 CKL10 AT3G24240 TMKL1 AT3G26700 HERK1 AT3G47570 CRK AT3G57710 AT3G57770 AT3G59740 AT3G59750 CRK38 AT4G11890 AT4G14480 MRH1 GSO1 CRK27 CRK28 AT4G22730 CRK14 CRK22 MEK1 AT4G28350 HAE CKL4 AT4G30520 AT4G31250 AT4G32710 AT4G34220 AT4G35500 AT5G01850 AT5G01890 AT5G01950 AT5G06740 AT5G10020 CIPK5 CPK7 AT5G35370 AT5G37790 AT5G39020 CRK42 AT5G43020 AT5G46080 FLS2 AT5G49470 AT5G51350 PSKR2 AT5G55560 CIPK21 AT5G58150 AT5G58300 AT5G59010 AT5G59700 AT5G61560 AT5G61570 AT5G63710 AT5G63930 AT5G65240"
0.0159220380906236,77,799,1.49697192580773,"Serine/threonine-protein kinase, active site","https://www.ebi.ac.uk/interpro/entry/InterPro/IPR008271","AT1G09440 AT1G11410 WAK2 AT1G28390 HERK2 AT1G34110 AT1G51170 AT1G56145 AT1G56720 SD1-29 AT1G61400 AT1G61590 SNC4 AT1G67890 AT1G69790 RHS10 CRK3 SERK1 AT1G72300 AT1G74330 CPK29 PPK1 AT1G78290 AT2G16750 AT2G18890 AT2G23950 PID AT2G44830 RKF3 PPCK2 AT3G10540 BRL3 WAG2 CES101 AT3G19300 CKL10 AT3G24240 AT3G26700 HERK1 AT3G47570 CRK AT3G57770 AT3G59740 AT3G59750 CRK38 AT4G11890 GSO1 CRK27 CRK28 CRK14 CRK22 MEK1 AT4G28350 HAE CKL4 AT4G30520 AT4G32710 AT4G35500 AT5G01850 AT5G01950 AT5G06740 CIPK5 CPK7 AT5G35370 AT5G37790 AT5G39020 CRK42 FLS2 AT5G49470 AT5G51350 PSKR2 CIPK21 AT5G59700 AT5G61560 AT5G63710 AT5G63930 AT5G65240"
