,Gene_set,Term,Overlap,P-value,Adjusted P-value,Old P-value,Old Adjusted P-value,Odds Ratio,Combined Score,Genes
0,GO_Biological_Process_2021,tRNA 3'-end processing (GO:0042780),1/6,0.1152551203781589,0.9474129965112776,0,0,9.72258064516129,21.006677449420227,SSB
1,GO_Biological_Process_2021,chitin catabolic process (GO:0006032),1/6,0.1152551203781589,0.9474129965112776,0,0,9.72258064516129,21.006677449420227,CHIA
2,GO_Biological_Process_2021,chitin metabolic process (GO:0006030),1/6,0.1152551203781589,0.9474129965112776,0,0,9.72258064516129,21.006677449420227,CHIA
3,GO_Biological_Process_2021,RIG-I signaling pathway (GO:0039529),1/7,0.133132302890696,0.9474129965112776,0,0,8.101736972704714,16.336438734096625,CLPB
4,GO_Biological_Process_2021,protein localization to cytoplasmic stress granule (GO:1903608),1/7,0.133132302890696,0.9474129965112776,0,0,8.101736972704714,16.336438734096625,SSB
5,GO_Biological_Process_2021,glucosamine-containing compound catabolic process (GO:1901072),1/9,0.1678128638723428,0.9474129965112776,0,0,6.075682382133995,10.844520880520044,CHIA
6,GO_Biological_Process_2021,cytoplasmic pattern recognition receptor signaling pathway in response to virus (GO:0039528),1/10,0.1846305881581038,0.9474129965112776,0,0,5.400330851943755,9.123309603968655,CLPB
7,GO_Biological_Process_2021,aminoglycan metabolic process (GO:0006022),1/11,0.20110926636229,0.9474129965112776,0,0,4.860049627791564,7.79506715609744,CHIA
8,GO_Biological_Process_2021,regulation of hemopoiesis (GO:1903706),1/12,0.2172557169061739,0.9474129965112776,0,0,4.4180013534852245,6.744875191307783,PURB
9,GO_Biological_Process_2021,tRNA 5'-leader removal (GO:0001682),1/13,0.2330766214335682,0.9474129965112776,0,0,4.049627791563276,5.897829450175352,SSB
10,GO_Biological_Process_2021,antiviral innate immune response (GO:0140374),1/14,0.2485785276109535,0.9474129965112776,0,0,3.737927085321626,5.203181333610537,CLPB
11,GO_Biological_Process_2021,histone mRNA catabolic process (GO:0071044),1/15,0.2637678517121894,0.9474129965112776,0,0,3.470755051400213,4.625426361925391,SSB
12,GO_Biological_Process_2021,tRNA 5'-end processing (GO:0099116),1/15,0.2637678517121894,0.9474129965112776,0,0,3.470755051400213,4.625426361925391,SSB
13,GO_Biological_Process_2021,glucosamine-containing compound metabolic process (GO:1901071),1/15,0.2637678517121894,0.9474129965112776,0,0,3.470755051400213,4.625426361925391,CHIA
14,GO_Biological_Process_2021,DNA unwinding involved in DNA replication (GO:0006268),1/16,0.2786508813268464,0.9474129965112776,0,0,3.239205955334988,4.139043124108305,PURA
15,GO_Biological_Process_2021,tRNA metabolic process (GO:0006399),1/18,0.3075225789997614,0.9802282205617396,0,0,2.857830973580499,3.369973622387439,SSB
16,GO_Biological_Process_2021,ncRNA 3'-end processing (GO:0043628),1/24,0.3874025348099571,0.99999586919741,0,0,2.1116625310173696,2.0024705413086514,SSB
17,GO_Biological_Process_2021,histone mRNA metabolic process (GO:0008334),1/28,0.4354800673560783,0.99999586919741,0,0,1.798456024262476,1.4950677392513625,SSB
18,GO_Biological_Process_2021,macromolecule catabolic process (GO:0009057),1/28,0.4354800673560783,0.99999586919741,0,0,1.798456024262476,1.4950677392513625,CLPX
19,GO_Biological_Process_2021,aminoglycan catabolic process (GO:0006026),1/31,0.4690512086516094,0.99999586919741,0,0,1.618362282878412,1.2251703711388575,CHIA
20,GO_Biological_Process_2021,tRNA export from nucleus (GO:0006409),1/34,0.5006305670570461,0.99999586919741,0,0,1.4710128581096322,1.017774439478913,SSB
21,GO_Biological_Process_2021,tRNA-containing ribonucleoprotein complex export from nucleus (GO:0071431),1/34,0.5006305670570461,0.99999586919741,0,0,1.4710128581096322,1.017774439478913,SSB
22,GO_Biological_Process_2021,cellular response to heat (GO:0034605),1/36,0.5206354385155931,0.99999586919741,0,0,1.3868131868131868,0.9051802010556392,CLPB
23,GO_Biological_Process_2021,tRNA transport (GO:0051031),1/37,0.5303360396217919,0.99999586919741,0,0,1.348221670802316,0.8551020936462729,SSB
24,GO_Biological_Process_2021,DNA replication initiation (GO:0006270),1/38,0.5398408111578511,0.99999586919741,0,0,1.3117161826839243,0.8086480738952881,PURA
25,GO_Biological_Process_2021,ncRNA export from nucleus (GO:0097064),1/38,0.5398408111578511,0.99999586919741,0,0,1.3117161826839243,0.8086480738952881,SSB
26,GO_Biological_Process_2021,regulation of chemokine production (GO:0032642),1/42,0.5759792960902742,0.99999586919741,0,0,1.1835017853900622,0.6529184820411924,CHIA
27,GO_Biological_Process_2021,DNA duplex unwinding (GO:0032508),1/51,0.6472731895060698,0.99999586919741,0,0,0.9700248138957815,0.4219480219706358,PURA
28,GO_Biological_Process_2021,positive regulation of chemokine production (GO:0032722),1/53,0.661415417472683,0.99999586919741,0,0,0.9326207291467836,0.3855203856718647,CHIA
29,GO_Biological_Process_2021,RNA modification (GO:0009451),1/58,0.694345293670563,0.99999586919741,0,0,0.8505942275042445,0.3102847815770058,SSB
30,GO_Biological_Process_2021,cellular protein catabolic process (GO:0044257),1/60,0.7066044607922515,0.99999586919741,0,0,0.8216764099760272,0.285355260201891,CLPX
31,GO_Biological_Process_2021,organonitrogen compound catabolic process (GO:1901565),1/63,0.724079628392025,0.99999586919741,0,0,0.7817978067717922,0.2524064777116358,CLPX
32,GO_Biological_Process_2021,tRNA processing (GO:0008033),1/64,0.7296708029816348,0.99999586919741,0,0,0.7693489306392532,0.2424693948624136,SSB
33,GO_Biological_Process_2021,protein catabolic process (GO:0030163),1/64,0.7296708029816348,0.99999586919741,0,0,0.7693489306392532,0.2424693948624136,CLPX
34,GO_Biological_Process_2021,tRNA modification (GO:0006400),1/65,0.7351489536167316,0.99999586919741,0,0,0.7572890818858561,0.2330043270699645,SSB
35,GO_Biological_Process_2021,regulation of myeloid cell differentiation (GO:0045637),1/68,0.7509278247364946,0.99999586919741,0,0,0.7232695085367209,0.2071774676975494,PURB
36,GO_Biological_Process_2021,proteolysis involved in cellular protein catabolic process (GO:0051603),1/74,0.7797275799637607,0.99999586919741,0,0,0.6636187497875523,0.1651154302449059,CLPX
37,GO_Biological_Process_2021,mRNA metabolic process (GO:0016071),1/95,0.8567630995331202,0.99999586919741,0,0,0.5148091441845731,0.0795863165709316,SSB
38,GO_Biological_Process_2021,DNA-dependent DNA replication (GO:0006261),1/129,0.9287103182810814,0.99999586919741,0,0,0.3774038461538461,0.0279121883159256,PURA
39,GO_Biological_Process_2021,defense response to virus (GO:0051607),1/133,0.9343337464184296,0.99999586919741,0,0,0.3658921723437852,0.0248519723945464,CLPB
40,GO_Biological_Process_2021,protein localization to organelle (GO:0033365),1/142,0.945420931202942,0.99999586919741,0,0,0.3423789662636608,0.0192160266093423,SSB
41,GO_Biological_Process_2021,regulation of cell differentiation (GO:0045595),1/156,0.9590722183379224,0.99999586919741,0,0,0.3112302889618186,0.0130059717507707,PURB
42,GO_Biological_Process_2021,ncRNA processing (GO:0034470),1/201,0.983795986929466,0.99999586919741,0,0,0.2406451612903225,0.0039313559359329,SSB
43,GO_Biological_Process_2021,DNA metabolic process (GO:0006259),1/277,0.99662613134902,0.99999586919741,0,0,0.173697270471464,0.0005870226019622883,PURA
44,GO_Biological_Process_2021,proteolysis (GO:0006508),1/287,0.9972564812557216,0.99999586919741,0,0,0.1675371774627357,0.0004602730597149043,CLPX
45,GO_Biological_Process_2021,innate immune response (GO:0045087),1/302,0.9979884477505184,0.99999586919741,0,0,0.1590644913975746,0.00032028878240238247,CLPB
46,GO_Biological_Process_2021,positive regulation of cytokine production (GO:0001819),1/335,0.998983938872593,0.99999586919741,0,0,0.1431033714209298,0.00014547569152114848,CHIA
47,GO_Biological_Process_2021,"regulation of transcription, DNA-templated (GO:0006355)",2/2244,0.99999471015761,0.99999586919741,0,0,0.0385095042184261,2.0370974662534547e-07,PURB;PURA
48,GO_Biological_Process_2021,regulation of transcription by RNA polymerase II (GO:0006357),2/2206,0.9999947334905478,0.99999586919741,0,0,0.0392592391942284,2.067596987542687e-07,PURB;PURA
49,GO_Biological_Process_2021,negative regulation of transcription by RNA polymerase II (GO:0000122),1/684,0.9999956135926156,0.99999586919741,0,0,0.0687123295634134,3.01400930824618e-07,PURA
50,GO_Biological_Process_2021,"negative regulation of transcription, DNA-templated (GO:0045892)",1/948,0.99999586919741,0.99999586919741,0,0,0.0488652948713581,2.0185330352880057e-07,PURA
51,GO_Biological_Process_2023,Chitin Catabolic Process (GO:0006032),1/5,0.0970101944459733,0.9999960252956804,0,0,12.153846153846152,28.35418422784221,CHIA
52,GO_Biological_Process_2023,Chitin Metabolic Process (GO:0006030),1/5,0.0970101944459733,0.9999960252956804,0,0,12.153846153846152,28.35418422784221,CHIA
53,GO_Biological_Process_2023,tRNA Transport (GO:0051031),1/5,0.0970101944459733,0.9999960252956804,0,0,12.153846153846152,28.35418422784221,SSB
54,GO_Biological_Process_2023,tRNA 3'-End Processing (GO:0042780),1/6,0.1152551203781589,0.9999960252956804,0,0,9.72258064516129,21.006677449420227,SSB
55,GO_Biological_Process_2023,Protein Localization To Cytoplasmic Stress Granule (GO:1903608),1/7,0.133132302890696,0.9999960252956804,0,0,8.101736972704714,16.336438734096625,SSB
56,GO_Biological_Process_2023,Glucosamine-Containing Compound Catabolic Process (GO:1901072),1/8,0.1506491355671008,0.9999960252956804,0,0,6.943991492378589,13.143599258783132,CHIA
57,GO_Biological_Process_2023,ncRNA Export From Nucleus (GO:0097064),1/8,0.1506491355671008,0.9999960252956804,0,0,6.943991492378589,13.143599258783132,SSB
58,GO_Biological_Process_2023,Aminoglycan Metabolic Process (GO:0006022),1/9,0.1678128638723428,0.9999960252956804,0,0,6.075682382133995,10.844520880520044,CHIA
59,GO_Biological_Process_2023,Granulocyte Differentiation (GO:0030851),1/12,0.2172557169061739,0.9999960252956804,0,0,4.4180013534852245,6.744875191307783,CLPB
60,GO_Biological_Process_2023,tRNA 5'-Leader Removal (GO:0001682),1/12,0.2172557169061739,0.9999960252956804,0,0,4.4180013534852245,6.744875191307783,SSB
61,GO_Biological_Process_2023,Histone mRNA Catabolic Process (GO:0071044),1/14,0.2485785276109535,0.9999960252956804,0,0,3.737927085321626,5.203181333610537,SSB
62,GO_Biological_Process_2023,Regulation Of Hemopoiesis (GO:1903706),1/14,0.2485785276109535,0.9999960252956804,0,0,3.737927085321626,5.203181333610537,PURB
63,GO_Biological_Process_2023,Aminoglycan Catabolic Process (GO:0006026),1/14,0.2485785276109535,0.9999960252956804,0,0,3.737927085321626,5.203181333610537,CHIA
64,GO_Biological_Process_2023,tRNA 5'-End Processing (GO:0099116),1/14,0.2485785276109535,0.9999960252956804,0,0,3.737927085321626,5.203181333610537,SSB
65,GO_Biological_Process_2023,B Cell Mediated Immunity (GO:0019724),1/15,0.2637678517121894,0.9999960252956804,0,0,3.470755051400213,4.625426361925391,MPL
66,GO_Biological_Process_2023,tRNA Metabolic Process (GO:0006399),1/19,0.3215232014928257,0.9999960252956804,0,0,2.6989247311827955,3.062430951100199,SSB
67,GO_Biological_Process_2023,DNA Unwinding Involved In DNA Replication (GO:0006268),1/20,0.3352414431124906,0.9999960252956804,0,0,2.556745461669061,2.79427806060354,PURA
68,GO_Biological_Process_2023,DNA Replication Initiation (GO:0006270),1/21,0.3486829854480415,0.9999960252956804,0,0,2.4287841191067,2.5589478108507016,PURA
69,GO_Biological_Process_2023,Histone mRNA Metabolic Process (GO:0008334),1/23,0.3747581303113832,0.9999960252956804,0,0,2.2077599819535303,2.166860007266059,SSB
70,GO_Biological_Process_2023,Cytosolic Pattern Recognition Receptor Signaling Pathway (GO:0002753),1/23,0.3747581303113832,0.9999960252956804,0,0,2.2077599819535303,2.166860007266059,CLPB
71,GO_Biological_Process_2023,Regulation Of Myeloid Cell Differentiation (GO:0045637),1/26,0.4119312046564888,0.9999960252956804,0,0,1.942531017369727,1.7228286663528645,PURB
72,GO_Biological_Process_2023,Immunoglobulin Mediated Immune Response (GO:0016064),1/30,0.4580881682265468,0.9999960252956804,0,0,1.6742534439976042,1.3070789591387215,MPL
73,GO_Biological_Process_2023,Purine Ribonucleoside Triphosphate Metabolic Process (GO:0009205),1/32,0.4797930006201983,0.9999960252956804,0,0,1.566077003121748,1.1501277604452589,CLPX
74,GO_Biological_Process_2023,ATP Metabolic Process (GO:0046034),1/34,0.5006305670570461,0.9999960252956804,0,0,1.4710128581096322,1.017774439478913,CLPX
75,GO_Biological_Process_2023,RNA 3'-End Processing (GO:0031123),1/38,0.5398408111578511,0.9999960252956804,0,0,1.3117161826839243,0.8086480738952881,SSB
76,GO_Biological_Process_2023,Cellular Response To Heat (GO:0034605),1/40,0.5582785609308959,0.9999960252956804,0,0,1.2443214353884329,0.7253115154642916,CLPB
77,GO_Biological_Process_2023,Regulation Of Chemokine Production (GO:0032642),1/41,0.5672191905011621,0.9999960252956804,0,0,1.213151364764268,0.6878683130802905,CHIA
78,GO_Biological_Process_2023,DNA Duplex Unwinding (GO:0032508),1/41,0.5672191905011621,0.9999960252956804,0,0,1.213151364764268,0.6878683130802905,PURA
79,GO_Biological_Process_2023,Antiviral Innate Immune Response (GO:0140374),1/46,0.6092861153044334,0.9999960252956804,0,0,1.07808105872622,0.5341539220572864,CLPB
80,GO_Biological_Process_2023,tRNA Processing (GO:0008033),1/50,0.6399826390088766,0.9999960252956804,0,0,0.989871879272801,0.4417939051458828,SSB
81,GO_Biological_Process_2023,RNA Modification (GO:0009451),1/51,0.6472731895060698,0.9999960252956804,0,0,0.9700248138957815,0.4219480219706358,SSB
82,GO_Biological_Process_2023,Positive Regulation Of Chemokine Production (GO:0032722),1/53,0.661415417472683,0.9999960252956804,0,0,0.9326207291467836,0.3855203856718647,CHIA
83,GO_Biological_Process_2023,Chemokine-Mediated Signaling Pathway (GO:0070098),1/57,0.6880254235334549,0.9999960252956804,0,0,0.8658277206664303,0.3237585170826729,MPL
84,GO_Biological_Process_2023,tRNA Modification (GO:0006400),1/67,0.7457752535911174,0.9999960252956804,0,0,0.7342657342657343,0.2153828968211056,SSB
85,GO_Biological_Process_2023,DNA-templated DNA Replication (GO:0006261),1/69,0.7559762171247362,0.9999960252956804,0,0,0.712596701211502,0.1993456222310294,PURA
86,GO_Biological_Process_2023,Myeloid Leukocyte Differentiation (GO:0002573),1/71,0.7657688285166929,0.9999960252956804,0,0,0.6921658986175115,0.1847217362889025,CLPB
87,GO_Biological_Process_2023,Proteolysis Involved In Protein Catabolic Process (GO:0051603),1/78,0.7970568444372862,0.9999960252956804,0,0,0.6290161451451775,0.1426792791401859,CLPX
88,GO_Biological_Process_2023,Purine Ribonucleotide Metabolic Process (GO:0009150),1/84,0.8205339283551113,0.9999960252956804,0,0,0.5833657209483094,0.115389750383016,CLPX
89,GO_Biological_Process_2023,mRNA Metabolic Process (GO:0016071),1/85,0.8241743999020779,0.9999960252956804,0,0,0.576391350584899,0.1114585944381332,SSB
90,GO_Biological_Process_2023,Positive Regulation Of Amide Metabolic Process (GO:0034250),1/85,0.8241743999020779,0.9999960252956804,0,0,0.576391350584899,0.1114585944381332,SSB
91,GO_Biological_Process_2023,ncRNA Processing (GO:0034470),1/100,0.8707220455158247,0.9999960252956804,0,0,0.4886833596511016,0.0676496465605412,SSB
92,GO_Biological_Process_2023,Protein Catabolic Process (GO:0030163),1/102,0.8759178954329898,0.9999960252956804,0,0,0.4789573250128983,0.0634536645482789,CLPX
93,GO_Biological_Process_2023,Positive Regulation Of Translation (GO:0045727),1/108,0.8902884342744869,0.9999960252956804,0,0,0.4519607615778855,0.0525222630693277,SSB
94,GO_Biological_Process_2023,Positive Regulation Of Macromolecule Biosynthetic Process (GO:0010557),1/122,0.9176891260971664,0.9999960252956804,0,0,0.3993806779730533,0.0343054376746914,SSB
95,GO_Biological_Process_2023,Protein Localization To Organelle (GO:0033365),1/137,0.9395145868129932,0.9999960252956804,0,0,0.3550576558166691,0.0221527338649748,SSB
96,GO_Biological_Process_2023,Positive Regulation Of Cellular Biosynthetic Process (GO:0031328),1/174,0.9717403896534648,0.9999960252956804,0,0,0.2785897674952308,0.0079862211586904,SSB
97,GO_Biological_Process_2023,Defense Response To Virus (GO:0051607),1/189,0.9792501846909868,0.9999960252956804,0,0,0.2561638773032046,0.0053712743635144,CLPB
98,GO_Biological_Process_2023,Positive Regulation Of Protein Metabolic Process (GO:0051247),1/196,0.982037093215088,0.9999960252956804,0,0,0.2468791754151555,0.0044749808673986,SSB
99,GO_Biological_Process_2023,Regulation Of Translation (GO:0006417),1/202,0.9841265803097754,0.9999960252956804,0,0,0.2394355764601311,0.0038311492015575,SSB
100,GO_Biological_Process_2023,DNA Metabolic Process (GO:0006259),1/288,0.9973126486811128,0.9999960252956804,0,0,0.1669447782744399,0.0004492431779285536,PURA
101,GO_Biological_Process_2023,Positive Regulation Of Cytokine Production (GO:0001819),1/320,0.9986140436332972,0.9999960252956804,0,0,0.1499490498378151,0.0002079669902038136,CHIA
102,GO_Biological_Process_2023,Proteolysis (GO:0006508),1/330,0.998873160575547,0.9999960252956804,0,0,0.1453159057826182,0.0001638400196790235,CLPX
103,GO_Biological_Process_2023,Positive Regulation Of Gene Expression (GO:0010628),1/480,0.9999473376800384,0.9999960252956804,0,0,0.0990328279034589,5.215435799444187e-06,SSB
104,GO_Biological_Process_2023,Regulation Of Transcription By RNA Polymerase II (GO:0006357),2/2028,0.9999948482832448,0.9999960252956804,0,0,0.0431455751842956,2.222743551322837e-07,PURB;PURA
105,GO_Biological_Process_2023,Regulation Of DNA-templated Transcription (GO:0006355),2/1922,0.9999949215270432,0.9999960252956804,0,0,0.0458022388059701,2.326060217806788e-07,PURB;PURA
106,GO_Biological_Process_2023,Negative Regulation Of DNA-templated Transcription (GO:0045892),1/1025,0.999995768592657,0.9999960252956804,0,0,0.0450042648883374,1.904317798104536e-07,PURA
107,GO_Biological_Process_2023,Negative Regulation Of Transcription By RNA Polymerase II (GO:0000122),1/763,0.9999960252956804,0.9999960252956804,0,0,0.0613313534319376,2.4377447986992964e-07,PURA
108,GO_Biological_Process_2013,tRNA modification (GO:0006400),1/9,0.1678128638723428,0.999996028987698,0,0,6.075682382133995,10.844520880520044,SSB
109,GO_Biological_Process_2013,DNA replication initiation (GO:0006270),1/10,0.1846305881581038,0.999996028987698,0,0,5.400330851943755,9.123309603968655,PURA
110,GO_Biological_Process_2013,N-acetylglucosamine metabolic process (GO:0006044),1/12,0.2172557169061739,0.999996028987698,0,0,4.4180013534852245,6.744875191307783,CHIA
111,GO_Biological_Process_2013,glucosamine metabolic process (GO:0006041),1/14,0.2485785276109535,0.999996028987698,0,0,3.737927085321626,5.203181333610537,CHIA
112,GO_Biological_Process_2013,response to heat (GO:0009408),1/15,0.2637678517121894,0.999996028987698,0,0,3.470755051400213,4.625426361925391,CLPB
113,GO_Biological_Process_2013,RNA modification (GO:0009451),1/16,0.2786508813268464,0.999996028987698,0,0,3.239205955334988,4.139043124108305,SSB
114,GO_Biological_Process_2013,tRNA processing (GO:0008033),1/17,0.2932337778227648,0.999996028987698,0,0,3.036600496277916,3.7252562786232497,SSB
115,GO_Biological_Process_2013,amino sugar metabolic process (GO:0006040),1/21,0.3486829854480415,0.999996028987698,0,0,2.4287841191067,2.5589478108507016,CHIA
116,GO_Biological_Process_2013,response to temperature stimulus (GO:0009266),1/23,0.3747581303113832,0.999996028987698,0,0,2.2077599819535303,2.166860007266059,CLPB
117,GO_Biological_Process_2013,digestion (GO:0007586),1/45,0.6012124671207905,0.999996028987698,0,0,1.1026392961876832,0.5610304647534661,CHIA
118,GO_Biological_Process_2013,regulation of myeloid cell differentiation (GO:0045637),1/47,0.617196704230088,0.999996028987698,0,0,1.054590570719603,0.5089111335282115,PURB
119,GO_Biological_Process_2013,polysaccharide metabolic process (GO:0005976),1/60,0.7066044607922515,0.999996028987698,0,0,0.8216764099760272,0.285355260201891,CHIA
120,GO_Biological_Process_2013,monosaccharide metabolic process (GO:0005996),1/92,0.8476761913030064,0.999996028987698,0,0,0.5318626782646634,0.0878937997893227,CHIA
121,GO_Biological_Process_2013,proteolysis involved in cellular protein catabolic process (GO:0051603),1/121,0.9159816652523312,0.999996028987698,0,0,0.4027295285359801,0.0353431127487454,CLPX
122,GO_Biological_Process_2013,response to abiotic stimulus (GO:0009628),1/133,0.9343337464184296,0.999996028987698,0,0,0.3658921723437852,0.0248519723945464,CLPB
123,GO_Biological_Process_2013,response to biotic stimulus (GO:0009607),1/145,0.948684796867267,0.999996028987698,0,0,0.3351943755169562,0.017657596554682,CHIA
124,GO_Biological_Process_2013,regulation of cell differentiation (GO:0045595),1/157,0.9599054136556014,0.999996028987698,0,0,0.3092193166634854,0.012653417339703,PURB
125,GO_Biological_Process_2013,mRNA metabolic process (GO:0016071),1/160,0.9623048327504188,0.999996028987698,0,0,0.3033381712626996,0.0116554672726188,SSB
126,GO_Biological_Process_2013,cellular alcohol metabolic process (GO:0006066),1/172,0.9705526874148636,0.999996028987698,0,0,0.2818771494493056,0.0084251921196302,CHIA
127,GO_Biological_Process_2013,cellular amine metabolic process (GO:0009308),1/173,0.9711526357532694,0.999996028987698,0,0,0.2802239021293785,0.0082026100030945,CHIA
128,GO_Biological_Process_2013,cell proliferation (GO:0008283),1/237,0.9922894465520442,0.999996028987698,0,0,0.2035580603103839,0.0015756276207883,MPL
129,GO_Biological_Process_2013,proteolysis (GO:0006508),1/253,0.9944592242000266,0.999996028987698,0,0,0.1904761904761904,0.0010583205401618,CLPX
130,GO_Biological_Process_2013,RNA processing (GO:0006396),1/260,0.9952053906884584,0.999996028987698,0,0,0.1852611207449917,0.0008903909427576083,SSB
131,GO_Biological_Process_2013,carbohydrate metabolic process (GO:0005975),1/269,0.9960192645082876,0.999996028987698,0,0,0.1789563349505573,0.000713799501978456,CHIA
132,GO_Biological_Process_2013,protein catabolic process (GO:0030163),1/270,0.996100714668887,0.999996028987698,0,0,0.1782818452682945,0.0006965306541936408,CLPX
133,GO_Biological_Process_2013,DNA metabolic process (GO:0006259),1/294,0.9976263409487864,0.999996028987698,0,0,0.1634753004344549,0.0003884958875399705,PURA
134,GO_Biological_Process_2013,cellular response to stimulus (GO:0051716),1/359,0.9993815991160104,0.999996028987698,0,0,0.1333434991751805,8.248524486785778e-05,CLPB
135,GO_Biological_Process_2013,catabolic process (GO:0009056),2/523,0.9997541676057364,0.999996028987698,0,0,0.1821506670104372,4.47840394972546e-05,CHIA;CLPX
136,GO_Biological_Process_2013,immune response (GO:0006955),1/421,0.9998275687563428,0.999996028987698,0,0,0.1132931584544487,1.9536964650117463e-05,CHIA
137,GO_Biological_Process_2013,RNA metabolic process (GO:0016070),1/498,0.9999627928025696,0.999996028987698,0,0,0.0953562566465792,3.548005073344054e-06,SSB
138,GO_Biological_Process_2013,immune system process (GO:0002376),1/552,0.9999856317006768,0.999996028987698,0,0,0.0857678121889819,1.2323464512115252e-06,CHIA
139,GO_Biological_Process_2013,response to chemical stimulus (GO:0042221),1/566,0.9999883839557532,0.999996028987698,0,0,0.0835811063044862,9.708874679872102e-07,CHIA
140,GO_Biological_Process_2013,biological process (GO:0008150),7/7682,0.9999932738349988,0.999996028987698,0,0,0.027386834483381,1.8420898710322614e-07,PURB;PURA;CHIA;SSB;CLPB;MPL;CLPX
141,GO_Biological_Process_2013,metabolic process (GO:0008152),4/2881,0.9999943721925484,0.999996028987698,0,0,0.0581126173096976,3.27047541015896e-07,PURA;CHIA;SSB;CLPX
142,GO_Biological_Process_2013,cell communication (GO:0007154),1/1896,0.9999949401672394,0.999996028987698,0,0,0.0231784047087477,1.172791481894507e-07,MPL
143,GO_Biological_Process_2013,signal transduction (GO:0007165),1/1722,0.9999950714484293,0.999996028987698,0,0,0.0257727127888886,1.2702245711961548e-07,MPL
144,GO_Biological_Process_2013,protein metabolic process (GO:0019538),1/1147,0.9999956202019888,0.999996028987698,0,0,0.0399490730515895,1.749692538641505e-07,CLPX
145,GO_Biological_Process_2013,cell surface receptor linked signal transduction (GO:0007166),1/689,0.9999956723379442,0.999996028987698,0,0,0.0681949333487218,2.951252640544589e-07,MPL
146,GO_Biological_Process_2013,"nucleobase, nucleoside, nucleotide and nucleic acid metabolic process (GO:0006139)",2/894,0.9999957896154495,0.999996028987698,0,0,0.1043214421167704,4.392343128426049e-07,PURA;SSB
147,GO_Biological_Process_2013,cellular protein metabolic process (GO:0044267),1/963,0.9999958493752764,0.999996028987698,0,0,0.048064670893455,1.9949882536943538e-07,CLPX
148,GO_Biological_Process_2013,response to stress (GO:0006950),1/767,0.999996028987698,0.999996028987698,0,0,0.0609981276198744,2.422247961224408e-07,CLPB
149,GO_Biological_Process_2015,positive regulation of chemokine secretion (GO:0090197),1/8,0.1506491355671008,0.999945233139862,0,0,6.943991492378589,13.143599258783132,CHIA
150,GO_Biological_Process_2015,production of molecular mediator involved in inflammatory response (GO:0002532),1/8,0.1506491355671008,0.999945233139862,0,0,6.943991492378589,13.143599258783132,CHIA
151,GO_Biological_Process_2015,glucosamine-containing compound catabolic process (GO:1901072),1/8,0.1506491355671008,0.999945233139862,0,0,6.943991492378589,13.143599258783132,CHIA
152,GO_Biological_Process_2015,regulation of chemokine secretion (GO:0090196),1/9,0.1678128638723428,0.999945233139862,0,0,6.075682382133995,10.844520880520044,CHIA
153,GO_Biological_Process_2015,DNA unwinding involved in DNA replication (GO:0006268),1/10,0.1846305881581038,0.999945233139862,0,0,5.400330851943755,9.123309603968655,PURA
154,GO_Biological_Process_2015,cell wall macromolecule metabolic process (GO:0044036),1/11,0.20110926636229,0.999945233139862,0,0,4.860049627791564,7.79506715609744,CHIA
155,GO_Biological_Process_2015,amino sugar catabolic process (GO:0046348),1/13,0.2330766214335682,0.999945233139862,0,0,4.049627791563276,5.897829450175352,CHIA
156,GO_Biological_Process_2015,regulation of chemokine production (GO:0032642),2/56,0.3129134868190402,0.999945233139862,0,0,1.800442233278054,2.091805147093829,CHIA;MPL
157,GO_Biological_Process_2015,polysaccharide catabolic process (GO:0000272),1/22,0.3618533958975492,0.999945233139862,0,0,2.3130095710740872,2.3512115445323643,CHIA
158,GO_Biological_Process_2015,DNA replication initiation (GO:0006270),1/24,0.3874025348099571,0.999945233139862,0,0,2.1116625310173696,2.0024705413086514,PURA
159,GO_Biological_Process_2015,glucosamine-containing compound metabolic process (GO:1901071),1/25,0.3997918483272749,0.999945233139862,0,0,2.023573200992556,1.855234668786394,CHIA
160,GO_Biological_Process_2015,histone mRNA metabolic process (GO:0008334),1/28,0.4354800673560783,0.999945233139862,0,0,1.798456024262476,1.4950677392513625,SSB
161,GO_Biological_Process_2015,cellular response to heat (GO:0034605),1/29,0.4468993340247423,0.999945233139862,0,0,1.7341368309110246,1.3967118041978968,CLPB
162,GO_Biological_Process_2015,response to fungus (GO:0009620),1/35,0.5107349833333886,0.999945233139862,0,0,1.4276747920011676,0.9592610415067327,CHIA
163,GO_Biological_Process_2015,amino sugar metabolic process (GO:0006040),1/38,0.5398408111578511,0.999945233139862,0,0,1.3117161826839243,0.8086480738952881,CHIA
164,GO_Biological_Process_2015,tRNA modification (GO:0006400),1/39,0.5491536968065674,0.999945233139862,0,0,1.2771320360454486,0.7654834647936031,SSB
165,GO_Biological_Process_2015,positive regulation of chemokine production (GO:0032722),1/41,0.5672191905011621,0.999945233139862,0,0,1.213151364764268,0.6878683130802905,CHIA
166,GO_Biological_Process_2015,DNA duplex unwinding (GO:0032508),1/55,0.6749919713017866,0.999945233139862,0,0,0.8979873173421561,0.3529579403526501,PURA
167,GO_Biological_Process_2015,DNA geometric change (GO:0032392),1/57,0.6880254235334549,0.999945233139862,0,0,0.8658277206664303,0.3237585170826729,PURA
168,GO_Biological_Process_2015,digestion (GO:0007586),1/66,0.7405163592833915,0.999945233139862,0,0,0.7456003054017942,0.2239839634897843,CHIA
169,GO_Biological_Process_2015,aminoglycan catabolic process (GO:0006026),1/67,0.7457752535911174,0.999945233139862,0,0,0.7342657342657343,0.2153828968211056,CHIA
170,GO_Biological_Process_2015,positive regulation of cytokine secretion (GO:0050715),1/69,0.7559762171247362,0.999945233139862,0,0,0.712596701211502,0.1993456222310294,CHIA
171,GO_Biological_Process_2015,response to heat (GO:0009408),1/70,0.7609225320440933,0.999945233139862,0,0,0.7022332506203474,0.1918667837660944,CLPB
172,GO_Biological_Process_2015,negative regulation of translation (GO:0017148),1/72,0.7705171239364634,0.999945233139862,0,0,0.6823821339950372,0.1778925186253395,PURA
173,GO_Biological_Process_2015,polysaccharide metabolic process (GO:0005976),1/88,0.8346597203311794,0.999945233139862,0,0,0.5564302216137589,0.1005642781603528,CHIA
174,GO_Biological_Process_2015,RNA modification (GO:0009451),1/89,0.8380143202975247,0.999945233139862,0,0,0.5500789533047598,0.0972100021271649,SSB
175,GO_Biological_Process_2015,homeostasis of number of cells (GO:0048872),1/96,0.8596702587571468,0.999945233139862,0,0,0.5093639806712812,0.0770190853050141,MPL
176,GO_Biological_Process_2015,tRNA processing (GO:0008033),1/98,0.8653091801605097,0.999945233139862,0,0,0.4988104678826328,0.07216211339066,SSB
177,GO_Biological_Process_2015,DNA conformation change (GO:0071103),1/99,0.8680432962072788,0.999945233139862,0,0,0.4936952448473186,0.0698646334357427,PURA
178,GO_Biological_Process_2015,positive regulation of protein secretion (GO:0050714),1/106,0.8856929225071956,0.999945233139862,0,0,0.4606168025522864,0.0559119600043937,CHIA
179,GO_Biological_Process_2015,regulation of cytokine secretion (GO:0050707),1/106,0.8856929225071956,0.999945233139862,0,0,0.4606168025522864,0.0559119600043937,CHIA
180,GO_Biological_Process_2015,carbohydrate catabolic process (GO:0016052),1/120,0.9142388732100056,0.999945233139862,0,0,0.4061346623016452,0.0364154116048373,CHIA
181,GO_Biological_Process_2015,response to temperature stimulus (GO:0009266),1/122,0.9176891260971664,0.999945233139862,0,0,0.3993806779730533,0.0343054376746914,CLPB
182,GO_Biological_Process_2015,positive regulation of peptidase activity (GO:0010952),1/139,0.9419500061022672,0.999945233139862,0,0,0.3498759305210918,0.0209236575256355,CLPX
183,GO_Biological_Process_2015,tRNA metabolic process (GO:0006399),1/146,0.9497288903547574,0.999945233139862,0,0,0.3328655771369898,0.0171687783003069,SSB
184,GO_Biological_Process_2015,regulation of myeloid cell differentiation (GO:0045637),1/156,0.9590722183379224,0.999945233139862,0,0,0.3112302889618186,0.0130059717507707,PURB
185,GO_Biological_Process_2015,regulation of protein secretion (GO:0050708),1/161,0.9630723700561008,0.999945233139862,0,0,0.3014267990074442,0.0113417015793494,CHIA
186,GO_Biological_Process_2015,aminoglycan metabolic process (GO:0006022),1/171,0.9699402920669664,0.999945233139862,0,0,0.2835498467377025,0.0086541579401717,CHIA
187,GO_Biological_Process_2015,platelet activation (GO:0030168),1/205,0.985078527109534,0.999945233139862,0,0,0.2358779740183914,0.0035461701273977,MPL
188,GO_Biological_Process_2015,protein folding (GO:0006457),1/221,0.9892724399180116,0.999945233139862,0,0,0.2185427475750056,0.0023570961269898,CLPX
189,GO_Biological_Process_2015,positive regulation of proteolysis (GO:0045862),1/228,0.9907152687283586,0.999945233139862,0,0,0.2117270252839387,0.0019750115127313,CLPX
190,GO_Biological_Process_2015,positive regulation of protein transport (GO:0051222),1/231,0.991272732070247,0.999945233139862,0,0,0.2089330024813895,0.0018314176032777,CHIA
191,GO_Biological_Process_2015,positive regulation of protein processing (GO:0010954),1/240,0.9927525722495384,0.999945233139862,0,0,0.200971791064921,0.0014618322192004,CLPX
192,GO_Biological_Process_2015,positive regulation of protein maturation (GO:1903319),1/240,0.9927525722495384,0.999945233139862,0,0,0.200971791064921,0.0014618322192004,CLPX
193,GO_Biological_Process_2015,ncRNA processing (GO:0034470),1/241,0.992900693890876,0.999945233139862,0,0,0.2001240694789081,0.0014258091666668,SSB
194,GO_Biological_Process_2015,positive regulation of secretion by cell (GO:1903532),1/247,0.9937280880429472,0.999945233139862,0,0,0.1951824729165406,0.0012280223479377,CHIA
195,GO_Biological_Process_2015,regulation of translation (GO:0006417),1/264,0.9955858209518722,0.999945233139862,0,0,0.1824057213484418,0.0008069538460046245,PURA
196,GO_Biological_Process_2015,positive regulation of secretion (GO:0051047),1/273,0.9963352174540314,0.999945233139862,0,0,0.1762881331192526,0.000647244404053189,CHIA
197,GO_Biological_Process_2015,nervous system development (GO:0007399),1/277,0.99662613134902,0.999945233139862,0,0,0.173697270471464,0.0005870226019622883,PURA
198,GO_Biological_Process_2015,positive regulation of cytokine production (GO:0001819),1/327,0.9988009751983672,0.999945233139862,0,0,0.1466760035926867,0.0001759736856139568,CHIA
199,GO_Biological_Process_2015,ATP catabolic process (GO:0006200),1/327,0.9988009751983672,0.999945233139862,0,0,0.1466760035926867,0.0001759736856139568,CLPX
200,GO_Biological_Process_2015,purine ribonucleoside monophosphate catabolic process (GO:0009169),1/332,0.9989188526157496,0.999945233139862,0,0,0.1444228707653325,0.00015622687631899052,CLPX
201,GO_Biological_Process_2015,ribonucleoside monophosphate catabolic process (GO:0009158),1/332,0.9989188526157496,0.999945233139862,0,0,0.1444228707653325,0.00015622687631899052,CLPX
202,GO_Biological_Process_2015,ncRNA metabolic process (GO:0034660),1/332,0.9989188526157496,0.999945233139862,0,0,0.1444228707653325,0.00015622687631899052,SSB
203,GO_Biological_Process_2015,purine nucleoside monophosphate catabolic process (GO:0009128),1/333,0.9989409987547364,0.999945233139862,0,0,0.1439803880534545,0.00015255620311167224,CLPX
204,GO_Biological_Process_2015,nucleoside monophosphate catabolic process (GO:0009125),1/335,0.998983938872593,0.999945233139862,0,0,0.1431033714209298,0.00014547569152114848,CLPX
205,GO_Biological_Process_2015,cytokine-mediated signaling pathway (GO:0019221),1/342,0.99912096511815,0.999945233139862,0,0,0.14011482794001,0.00012321998649465792,MPL
206,GO_Biological_Process_2015,regulation of cytokine production (GO:0001817),2/482,0.9994668163513394,0.999945233139862,0,0,0.1981343283582089,0.00010567015742303138,CHIA;MPL
207,GO_Biological_Process_2015,regulation of peptidase activity (GO:0052547),1/372,0.999527319464698,0.999945233139862,0,0,0.1285841364964919,6.079358757544768e-05,CLPX
208,GO_Biological_Process_2015,ATP metabolic process (GO:0046034),1/377,0.9995736991995414,0.999945233139862,0,0,0.1268412438625204,5.408405264646512e-05,CLPX
209,GO_Biological_Process_2015,regulation of protein transport (GO:0051223),1/379,0.9995909446073398,0.999945233139862,0,0,0.126156997124739,5.161575756755528e-05,CHIA
210,GO_Biological_Process_2015,proteolysis involved in cellular protein catabolic process (GO:0051603),1/391,0.9996806448258976,0.999945233139862,0,0,0.1221988929184959,3.9031081443777896e-05,CLPX
211,GO_Biological_Process_2015,purine ribonucleoside monophosphate metabolic process (GO:0009167),1/402,0.9997453699359128,0.999945233139862,0,0,0.1187787355432758,3.024848829430672e-05,CLPX
212,GO_Biological_Process_2015,purine nucleoside monophosphate metabolic process (GO:0009126),1/403,0.9997505529856994,0.999945233139862,0,0,0.1184770934409836,2.95574438832175e-05,CLPX
213,GO_Biological_Process_2015,ribonucleoside monophosphate metabolic process (GO:0009161),1/416,0.9998089815244212,0.999945233139862,0,0,0.1146880325271308,2.190962577873472e-05,CLPX
214,GO_Biological_Process_2015,nucleoside monophosphate metabolic process (GO:0009123),1/427,0.9998474647486268,0.999945233139862,0,0,0.1116625310173697,1.7033771396027514e-05,CLPX
215,GO_Biological_Process_2015,posttranscriptional regulation of gene expression (GO:0010608),1/438,0.9998780706334196,0.999945233139862,0,0,0.108789343084759,1.3265424431869027e-05,PURA
216,GO_Biological_Process_2015,regulation of establishment of protein localization (GO:0070201),1/442,0.9998875720149044,0.999945233139862,0,0,0.10778008473861,1.2118178984581913e-05,CHIA
217,GO_Biological_Process_2015,response to other organism (GO:0051707),1/462,0.999924820331774,0.999945233139862,0,0,0.1029965066771448,7.743534282242309e-06,CHIA
218,GO_Biological_Process_2015,transcription from RNA polymerase II promoter (GO:0006366),1/470,0.9999358776327728,0.999945233139862,0,0,0.101197310152534,6.489219138285996e-06,PURA
219,GO_Biological_Process_2015,cellular response to cytokine stimulus (GO:0071345),1/471,0.9999371343113644,0.999945233139862,0,0,0.1009767171743836,6.348170404479875e-06,MPL
220,GO_Biological_Process_2015,coagulation (GO:0050817),1/472,0.9999383650701292,0.999945233139862,0,0,0.1007570608967773,6.210345771447948e-06,MPL
221,GO_Biological_Process_2015,blood coagulation (GO:0007596),1/472,0.9999383650701292,0.999945233139862,0,0,0.1007570608967773,6.210345771447948e-06,MPL
222,GO_Biological_Process_2015,hemostasis (GO:0007599),1/478,0.999945233139862,0.999945233139862,0,0,0.0994584640354573,5.447176953126474e-06,MPL
223,GO_Biological_Process_2017,IRES-dependent viral translational initiation (GO:0075522),1/7,0.133132302890696,0.5069300061144058,0,0,8.101736972704714,16.336438734096625,SSB
224,GO_Biological_Process_2017,protein localization to cytoplasmic stress granule (GO:1903608),1/7,0.133132302890696,0.5069300061144058,0,0,8.101736972704714,16.336438734096625,SSB
225,GO_Biological_Process_2017,positive regulation of chemokine secretion (GO:0090197),1/7,0.133132302890696,0.5069300061144058,0,0,8.101736972704714,16.336438734096625,CHIA
226,GO_Biological_Process_2017,tRNA 5'-leader removal (GO:0001682),1/11,0.20110926636229,0.5069300061144058,0,0,4.860049627791564,7.79506715609744,SSB
227,GO_Biological_Process_2017,tRNA processing (GO:0008033),1/11,0.20110926636229,0.5069300061144058,0,0,4.860049627791564,7.79506715609744,SSB
228,GO_Biological_Process_2017,histone mRNA metabolic process (GO:0008334),1/12,0.2172557169061739,0.5069300061144058,0,0,4.4180013534852245,6.744875191307783,SSB
229,GO_Biological_Process_2017,DNA replication initiation (GO:0006270),1/24,0.3874025348099571,0.6240410890434686,0,0,2.1116625310173696,2.0024705413086514,PURA
230,GO_Biological_Process_2017,cellular response to heat (GO:0034605),1/26,0.4119312046564888,0.6240410890434686,0,0,1.942531017369727,1.7228286663528645,CLPB
231,GO_Biological_Process_2017,tRNA modification (GO:0006400),1/27,0.4238256344740167,0.6240410890434686,0,0,1.8677228478717312,1.6033152034798748,SSB
232,GO_Biological_Process_2017,proteolysis involved in cellular protein catabolic process (GO:0051603),1/29,0.4468993340247423,0.6240410890434686,0,0,1.7341368309110246,1.3967118041978968,CLPX
233,GO_Biological_Process_2017,tRNA export from nucleus (GO:0006409),1/33,0.4903179985341538,0.6240410890434686,0,0,1.517059553349876,1.081210045466474,SSB
234,GO_Biological_Process_2017,digestion (GO:0007586),1/48,0.6249475191951801,0.7291054390610435,0,0,1.0320996779473102,0.4851772626921847,CHIA
235,GO_Biological_Process_2017,carbohydrate metabolic process (GO:0005975),1/64,0.7296708029816348,0.7857993262879144,0,0,0.7693489306392532,0.2424693948624136,CHIA
236,GO_Biological_Process_2017,cell surface receptor signaling pathway (GO:0007166),1/176,0.9728802977033888,0.9728802977033888,0,0,0.2753775257001063,0.0075712925622904,MPL
237,GO_Biological_Process_2017b,positive regulation of chemokine (C-C motif) ligand 6 secretion (GO:0035537),1/7,0.133132302890696,0.6452571753179706,0,0,8.101736972704714,16.336438734096625,CHIA
238,GO_Biological_Process_2017b,mitochondrial tRNA 3'-end processing (GO:1990180),1/9,0.1678128638723428,0.6452571753179706,0,0,6.075682382133995,10.844520880520044,SSB
239,GO_Biological_Process_2017b,positive regulation of chemokine (C-C motif) ligand 2 secretion (GO:1904209),1/11,0.20110926636229,0.6452571753179706,0,0,4.860049627791564,7.79506715609744,CHIA
240,GO_Biological_Process_2017b,tRNA 5'-end processing (GO:0099116),1/11,0.20110926636229,0.6452571753179706,0,0,4.860049627791564,7.79506715609744,SSB
241,GO_Biological_Process_2017b,nuclear histone mRNA catabolic process (GO:0071045),1/11,0.20110926636229,0.6452571753179706,0,0,4.860049627791564,7.79506715609744,SSB
242,GO_Biological_Process_2017b,tRNA processing (GO:0008033),1/13,0.2330766214335682,0.6452571753179706,0,0,4.049627791563276,5.897829450175352,SSB
243,GO_Biological_Process_2017b,tRNA 3'-end processing (GO:0042780),1/14,0.2485785276109535,0.6452571753179706,0,0,3.737927085321626,5.203181333610537,SSB
244,GO_Biological_Process_2017b,endonucleolytic cleavage involved in tRNA processing (GO:1905267),1/15,0.2637678517121894,0.6452571753179706,0,0,3.470755051400213,4.625426361925391,SSB
245,GO_Biological_Process_2017b,histone mRNA metabolic process (GO:0008334),1/15,0.2637678517121894,0.6452571753179706,0,0,3.470755051400213,4.625426361925391,SSB
246,GO_Biological_Process_2017b,mitochondrial tRNA processing (GO:0090646),1/16,0.2786508813268464,0.6452571753179706,0,0,3.239205955334988,4.139043124108305,SSB
247,GO_Biological_Process_2017b,tRNA 5'-leader removal (GO:0001682),1/17,0.2932337778227648,0.6452571753179706,0,0,3.036600496277916,3.7252562786232497,SSB
248,GO_Biological_Process_2017b,protein localization to cytoplasmic stress granule (GO:1903608),1/18,0.3075225789997614,0.6452571753179706,0,0,2.857830973580499,3.369973622387439,SSB
249,GO_Biological_Process_2017b,regulation of myeloid cell differentiation (GO:0045637),1/24,0.3874025348099571,0.6452571753179706,0,0,2.1116625310173696,2.0024705413086514,PURB
250,GO_Biological_Process_2017b,DNA replication initiation from late origin (GO:0061487),1/24,0.3874025348099571,0.6452571753179706,0,0,2.1116625310173696,2.0024705413086514,PURA
251,GO_Biological_Process_2017b,"tRNA splicing, via endonucleolytic cleavage and ligation (GO:0006388)",1/25,0.3997918483272749,0.6452571753179706,0,0,2.023573200992556,1.855234668786394,SSB
252,GO_Biological_Process_2017b,heat shock-mediated polytene chromosome puffing (GO:0035080),1/26,0.4119312046564888,0.6452571753179706,0,0,1.942531017369727,1.7228286663528645,CLPB
253,GO_Biological_Process_2017b,trehalose metabolism in response to heat stress (GO:0070414),1/26,0.4119312046564888,0.6452571753179706,0,0,1.942531017369727,1.7228286663528645,CLPB
254,GO_Biological_Process_2017b,negative regulation of myeloid cell differentiation (GO:0045638),1/26,0.4119312046564888,0.6452571753179706,0,0,1.942531017369727,1.7228286663528645,PURB
255,GO_Biological_Process_2017b,cellular response to heat (GO:0034605),1/26,0.4119312046564888,0.6452571753179706,0,0,1.942531017369727,1.7228286663528645,CLPB
256,GO_Biological_Process_2017b,cellular heat acclimation (GO:0070370),1/27,0.4238256344740167,0.6452571753179706,0,0,1.8677228478717312,1.6033152034798748,CLPB
257,GO_Biological_Process_2017b,proteolysis associated with antigen processing and presentation (GO:0002496),1/27,0.4238256344740167,0.6452571753179706,0,0,1.8677228478717312,1.6033152034798748,CLPX
258,GO_Biological_Process_2017b,tRNA seleno-modification (GO:0070329),1/28,0.4354800673560783,0.6452571753179706,0,0,1.798456024262476,1.4950677392513625,SSB
259,GO_Biological_Process_2017b,tRNA methylthiolation (GO:0035600),1/28,0.4354800673560783,0.6452571753179706,0,0,1.798456024262476,1.4950677392513625,SSB
260,GO_Biological_Process_2017b,modification-dependent protein catabolic process (GO:0019941),1/28,0.4354800673560783,0.6452571753179706,0,0,1.798456024262476,1.4950677392513625,CLPX
261,GO_Biological_Process_2017b,wybutosine biosynthetic process (GO:0031591),1/28,0.4354800673560783,0.6452571753179706,0,0,1.798456024262476,1.4950677392513625,SSB
262,GO_Biological_Process_2017b,tRNA adenosine deamination to inosine (GO:0140023),1/28,0.4354800673560783,0.6452571753179706,0,0,1.798456024262476,1.4950677392513625,SSB
263,GO_Biological_Process_2017b,cyclic threonylcarbamoyladenosine biosynthetic process (GO:0061504),1/28,0.4354800673560783,0.6452571753179706,0,0,1.798456024262476,1.4950677392513625,SSB
264,GO_Biological_Process_2017b,tRNA dihydrouridine synthesis (GO:0002943),1/28,0.4354800673560783,0.6452571753179706,0,0,1.798456024262476,1.4950677392513625,SSB
265,GO_Biological_Process_2017b,tRNA wobble base modification (GO:0002097),1/28,0.4354800673560783,0.6452571753179706,0,0,1.798456024262476,1.4950677392513625,SSB
266,GO_Biological_Process_2017b,tRNA-guanine transglycosylation (GO:0101030),1/28,0.4354800673560783,0.6452571753179706,0,0,1.798456024262476,1.4950677392513625,SSB
267,GO_Biological_Process_2017b,2-methylthio-N-6-(cis-hydroxy)isopentenyl adenosine-tRNA biosynthesis (GO:0002195),1/28,0.4354800673560783,0.6452571753179706,0,0,1.798456024262476,1.4950677392513625,SSB
268,GO_Biological_Process_2017b,tRNA demethylation (GO:1990983),1/29,0.4468993340247423,0.6452571753179706,0,0,1.7341368309110246,1.3967118041978968,SSB
269,GO_Biological_Process_2017b,positive regulation of myeloid cell differentiation (GO:0045639),1/29,0.4468993340247423,0.6452571753179706,0,0,1.7341368309110246,1.3967118041978968,PURB
270,GO_Biological_Process_2017b,tRNA acetylation (GO:0051391),1/29,0.4468993340247423,0.6452571753179706,0,0,1.7341368309110246,1.3967118041978968,SSB
271,GO_Biological_Process_2017b,tRNA thio-modification (GO:0034227),1/29,0.4468993340247423,0.6452571753179706,0,0,1.7341368309110246,1.3967118041978968,SSB
272,GO_Biological_Process_2017b,mitochondrial tRNA modification (GO:0070900),1/30,0.4580881682265468,0.6452571753179706,0,0,1.6742534439976042,1.3070789591387215,SSB
273,GO_Biological_Process_2017b,DNA unwinding involved in DNA replication (GO:0006268),1/31,0.4690512086516094,0.6452571753179706,0,0,1.618362282878412,1.2251703711388575,PURA
274,GO_Biological_Process_2017b,tRNA threonylcarbamoyladenosine modification (GO:0002949),1/32,0.4797930006201983,0.6452571753179706,0,0,1.566077003121748,1.1501277604452589,SSB
275,GO_Biological_Process_2017b,ubiquitin-independent protein catabolic process via the multivesicular body sorting pathway (GO:0090611),1/32,0.4797930006201983,0.6452571753179706,0,0,1.566077003121748,1.1501277604452589,CLPX
276,GO_Biological_Process_2017b,positive regulation of transcription from RNA polymerase II promoter in response to heat stress (GO:0061408),1/32,0.4797930006201983,0.6452571753179706,0,0,1.566077003121748,1.1501277604452589,CLPB
277,GO_Biological_Process_2017b,mannoprotein catabolic process (GO:0006058),1/33,0.4903179985341538,0.6452571753179706,0,0,1.517059553349876,1.081210045466474,CLPX
278,GO_Biological_Process_2017b,histone mRNA catabolic process (GO:0071044),1/33,0.4903179985341538,0.6452571753179706,0,0,1.517059553349876,1.081210045466474,SSB
279,GO_Biological_Process_2017b,tRNA re-export from nucleus (GO:0071528),1/33,0.4903179985341538,0.6452571753179706,0,0,1.517059553349876,1.081210045466474,SSB
280,GO_Biological_Process_2017b,tRNA pseudouridine synthesis (GO:0031119),1/34,0.5006305670570461,0.6452571753179706,0,0,1.4710128581096322,1.017774439478913,SSB
281,GO_Biological_Process_2017b,misfolded or incompletely synthesized protein catabolic process (GO:0006515),1/34,0.5006305670570461,0.6452571753179706,0,0,1.4710128581096322,1.017774439478913,CLPX
282,GO_Biological_Process_2017b,tRNA modification (GO:0006400),1/38,0.5398408111578511,0.6661865329181992,0,0,1.3117161826839243,0.8086480738952881,SSB
283,GO_Biological_Process_2017b,positive regulation of chemokine secretion (GO:0090197),1/38,0.5398408111578511,0.6661865329181992,0,0,1.3117161826839243,0.8086480738952881,CHIA
284,GO_Biological_Process_2017b,tRNA methylation (GO:0030488),1/42,0.5759792960902742,0.695974982775748,0,0,1.1835017853900622,0.6529184820411924,SSB
285,GO_Biological_Process_2017b,IRES-dependent viral translational initiation (GO:0075522),1/48,0.6249475191951801,0.7397337982310295,0,0,1.0320996779473102,0.4851772626921847,SSB
286,GO_Biological_Process_2017b,"membrane protein proteolysis involved in retrograde protein transport, ER to cytosol (GO:1904211)",1/50,0.6399826390088766,0.7423798612502969,0,0,0.989871879272801,0.4417939051458828,CLPX
287,GO_Biological_Process_2017b,DNA replication initiation (GO:0006270),1/57,0.6880254235334549,0.7813686918048309,0,0,0.8658277206664303,0.3237585170826729,PURA
288,GO_Biological_Process_2017b,proteasomal protein catabolic process (GO:0010498),1/59,0.7005374478250208,0.7813686918048309,0,0,0.8358860272097202,0.2974980693881738,CLPX
289,GO_Biological_Process_2017b,mRNA 3'-end processing by stem-loop binding and cleavage (GO:0006398),1/65,0.7351489536167316,0.8045026284862346,0,0,0.7572890818858561,0.2330043270699645,SSB
290,GO_Biological_Process_2017b,tRNA export from nucleus (GO:0006409),1/85,0.8241743999020779,0.88522435545038,0,0,0.576391350584899,0.1114585944381332,SSB
291,GO_Biological_Process_2017b,charged-tRNA amino acid modification (GO:0019988),1/112,0.8989338757873356,0.9479666326484628,0,0,0.4355844678425323,0.046409695719618,SSB
292,GO_Biological_Process_2017b,mRNA export from nucleus in response to heat stress (GO:0031990),1/125,0.9226065948955774,0.9555568304275625,0,0,0.3896582085968142,0.0313878881869511,CLPB
293,GO_Biological_Process_2017b,proteolysis involved in cellular protein catabolic process (GO:0051603),1/198,0.9827624203882293,0.998849595156122,0,0,0.2443475960751218,0.0042486857892686,CLPX
294,GO_Biological_Process_2017b,protein deubiquitination involved in ubiquitin-dependent protein catabolic process (GO:0071947),1/329,0.998849595156122,0.998849595156122,0,0,0.1457665072928645,0.00016778702608384252,CLPX
295,GO_Biological_Process_2018,tRNA 3'-end processing (GO:0042780),1/7,0.133132302890696,0.8605906022162519,0,0,8.101736972704714,16.336438734096625,SSB
296,GO_Biological_Process_2018,chitin catabolic process (GO:0006032),1/7,0.133132302890696,0.8605906022162519,0,0,8.101736972704714,16.336438734096625,CHIA
297,GO_Biological_Process_2018,protein localization to cytoplasmic stress granule (GO:1903608),1/7,0.133132302890696,0.8605906022162519,0,0,8.101736972704714,16.336438734096625,SSB
298,GO_Biological_Process_2018,chitin metabolic process (GO:0006030),1/7,0.133132302890696,0.8605906022162519,0,0,8.101736972704714,16.336438734096625,CHIA
299,GO_Biological_Process_2018,regulation of chemokine secretion (GO:0090196),1/8,0.1506491355671008,0.8605906022162519,0,0,6.943991492378589,13.143599258783132,CHIA
300,GO_Biological_Process_2018,positive regulation of chemokine secretion (GO:0090197),1/8,0.1506491355671008,0.8605906022162519,0,0,6.943991492378589,13.143599258783132,CHIA
301,GO_Biological_Process_2018,glucosamine-containing compound catabolic process (GO:1901072),1/10,0.1846305881581038,0.8605906022162519,0,0,5.400330851943755,9.123309603968655,CHIA
302,GO_Biological_Process_2018,IRES-dependent viral translational initiation (GO:0075522),1/10,0.1846305881581038,0.8605906022162519,0,0,5.400330851943755,9.123309603968655,SSB
303,GO_Biological_Process_2018,histone mRNA catabolic process (GO:0071044),1/11,0.20110926636229,0.8605906022162519,0,0,4.860049627791564,7.79506715609744,SSB
304,GO_Biological_Process_2018,regulation of hemopoiesis (GO:1903706),1/11,0.20110926636229,0.8605906022162519,0,0,4.860049627791564,7.79506715609744,PURB
305,GO_Biological_Process_2018,tRNA 5'-leader removal (GO:0001682),1/12,0.2172557169061739,0.8605906022162519,0,0,4.4180013534852245,6.744875191307783,SSB
306,GO_Biological_Process_2018,viral translation (GO:0019081),1/13,0.2330766214335682,0.8605906022162519,0,0,4.049627791563276,5.897829450175352,SSB
307,GO_Biological_Process_2018,glucosamine-containing compound metabolic process (GO:1901071),1/13,0.2330766214335682,0.8605906022162519,0,0,4.049627791563276,5.897829450175352,CHIA
308,GO_Biological_Process_2018,tRNA metabolic process (GO:0006399),1/18,0.3075225789997614,0.9606698715027784,0,0,2.857830973580499,3.369973622387439,SSB
309,GO_Biological_Process_2018,histone mRNA metabolic process (GO:0008334),1/24,0.3874025348099571,0.9606698715027784,0,0,2.1116625310173696,2.0024705413086514,SSB
310,GO_Biological_Process_2018,DNA replication initiation (GO:0006270),1/24,0.3874025348099571,0.9606698715027784,0,0,2.1116625310173696,2.0024705413086514,PURA
311,GO_Biological_Process_2018,ncRNA 3'-end processing (GO:0043628),1/25,0.3997918483272749,0.9606698715027784,0,0,2.023573200992556,1.855234668786394,SSB
312,GO_Biological_Process_2018,aminoglycan metabolic process (GO:0006022),1/30,0.4580881682265468,0.9606698715027784,0,0,1.6742534439976042,1.3070789591387215,CHIA
313,GO_Biological_Process_2018,aminoglycan catabolic process (GO:0006026),1/32,0.4797930006201983,0.9606698715027784,0,0,1.566077003121748,1.1501277604452589,CHIA
314,GO_Biological_Process_2018,purine ribonucleoside triphosphate metabolic process (GO:0009205),1/32,0.4797930006201983,0.9606698715027784,0,0,1.566077003121748,1.1501277604452589,CLPX
315,GO_Biological_Process_2018,tRNA export from nucleus (GO:0006409),1/33,0.4903179985341538,0.9606698715027784,0,0,1.517059553349876,1.081210045466474,SSB
316,GO_Biological_Process_2018,tRNA-containing ribonucleoprotein complex export from nucleus (GO:0071431),1/33,0.4903179985341538,0.9606698715027784,0,0,1.517059553349876,1.081210045466474,SSB
317,GO_Biological_Process_2018,positive regulation of chemokine production (GO:0032722),1/34,0.5006305670570461,0.9606698715027784,0,0,1.4710128581096322,1.017774439478913,CHIA
318,GO_Biological_Process_2018,macromolecule catabolic process (GO:0009057),1/34,0.5006305670570461,0.9606698715027784,0,0,1.4710128581096322,1.017774439478913,CLPX
319,GO_Biological_Process_2018,tRNA transport (GO:0051031),1/35,0.5107349833333886,0.9606698715027784,0,0,1.4276747920011676,0.9592610415067327,SSB
320,GO_Biological_Process_2018,purine ribonucleoside monophosphate metabolic process (GO:0009167),1/39,0.5491536968065674,0.9606698715027784,0,0,1.2771320360454486,0.7654834647936031,CLPX
321,GO_Biological_Process_2018,DNA duplex unwinding (GO:0032508),1/41,0.5672191905011621,0.9606698715027784,0,0,1.213151364764268,0.6878683130802905,PURA
322,GO_Biological_Process_2018,cellular response to heat (GO:0034605),1/47,0.617196704230088,0.9606698715027784,0,0,1.054590570719603,0.5089111335282115,CLPB
323,GO_Biological_Process_2018,RNA modification (GO:0009451),1/54,0.6682729713840554,0.9606698715027784,0,0,0.9149772929444262,0.3687894201714718,SSB
324,GO_Biological_Process_2018,DNA-dependent DNA replication (GO:0006261),1/56,0.6815752098763949,0.9606698715027784,0,0,0.8816151590345138,0.3379660027363408,PURA
325,GO_Biological_Process_2018,organonitrogen compound catabolic process (GO:1901565),1/56,0.6815752098763949,0.9606698715027784,0,0,0.8816151590345138,0.3379660027363408,CLPX
326,GO_Biological_Process_2018,ATP metabolic process (GO:0046034),1/56,0.6815752098763949,0.9606698715027784,0,0,0.8816151590345138,0.3379660027363408,CLPX
327,GO_Biological_Process_2018,tRNA modification (GO:0006400),1/58,0.694345293670563,0.9606698715027784,0,0,0.8505942275042445,0.3102847815770058,SSB
328,GO_Biological_Process_2018,tRNA processing (GO:0008033),1/62,0.7183731037213084,0.9606698715027784,0,0,0.7946548427775292,0.2628449641158902,SSB
329,GO_Biological_Process_2018,cellular protein catabolic process (GO:0044257),1/62,0.7183731037213084,0.9606698715027784,0,0,0.7946548427775292,0.2628449641158902,CLPX
330,GO_Biological_Process_2018,regulation of myeloid cell differentiation (GO:0045637),1/65,0.7351489536167316,0.9606698715027784,0,0,0.7572890818858561,0.2330043270699645,PURB
331,GO_Biological_Process_2018,purine ribonucleotide metabolic process (GO:0009150),1/66,0.7405163592833915,0.9606698715027784,0,0,0.7456003054017942,0.2239839634897843,CLPX
332,GO_Biological_Process_2018,positive regulation of cytokine secretion (GO:0050715),1/73,0.7751693954478384,0.979161341618322,0,0,0.6728701406120761,0.1713623274823037,CHIA
333,GO_Biological_Process_2018,protein catabolic process (GO:0030163),1/81,0.8091551675970152,0.9857354925928008,0,0,0.6053349875930522,0.1281885085524587,CLPX
334,GO_Biological_Process_2018,proteolysis involved in cellular protein catabolic process (GO:0051603),1/93,0.8507673167862335,0.9857354925928008,0,0,0.5260545905707196,0.0850191601704041,CLPX
335,GO_Biological_Process_2018,mRNA metabolic process (GO:0016071),1/97,0.8625185560187009,0.9857354925928008,0,0,0.5040322580645161,0.0745456734291679,SSB
336,GO_Biological_Process_2018,protein localization to organelle (GO:0033365),1/97,0.8625185560187009,0.9857354925928008,0,0,0.5040322580645161,0.0745456734291679,SSB
337,GO_Biological_Process_2018,RNA export from nucleus (GO:0006405),1/119,0.9124600207677952,0.9984307913448808,0,0,0.4095975101989317,0.0375236405143091,SSB
338,GO_Biological_Process_2018,regulation of cell differentiation (GO:0045595),1/121,0.9159816652523312,0.9984307913448808,0,0,0.4027295285359801,0.0353431127487454,PURB
339,GO_Biological_Process_2018,viral process (GO:0016032),1/220,0.9890488182386826,0.9984307913448808,0,0,0.2195519902104082,0.0024176159215008,SSB
340,GO_Biological_Process_2018,ncRNA processing (GO:0034470),1/227,0.9905216616220366,0.9984307913448808,0,0,0.2126748501284613,0.0020254182294094,SSB
341,GO_Biological_Process_2018,proteolysis (GO:0006508),1/291,0.997474354166584,0.9984307913448808,0,0,0.165192093779413,0.0004177444830166573,CLPX
342,GO_Biological_Process_2018,DNA metabolic process (GO:0006259),1/314,0.9984307913448808,0.9984307913448808,0,0,0.1528710390917955,0.0002400749708233529,PURA
